{
	"additionalNodes": [ {
		"children": [],
		"id": "xWAdWmijdb9hsDitSZGcnsnykuYMwvdR",
		"nodeType": "luaCommand",
		"parameters": [ {
			"name": "msg",
			"value": "\"Artilery should escape !\""
		}, {
			"name": "scriptName",
			"value": "echo"
		} ],
		"scriptName": "echo"
	}, {
		"children": [],
		"id": "tAC099iswfnt3cZwYVpCsLiYI1vigE0F",
		"nodeType": "luaCommand",
		"parameters": [ {
			"name": "var",
			"value": "maverickIDs"
		}, {
			"name": "value",
			"value": "lineInfo.units[\"armmav\"]"
		}, {
			"name": "scriptName",
			"value": "store"
		} ],
		"scriptName": "store"
	} ],
	"additionalParameters": {
		"root": {
			"height": 148,
			"width": 238
		}
	},
	"inputs": [ {
		"command": "Variable",
		"name": "lineInfo"
	}, {
		"command": "Variable",
		"name": "examLineInfo"
	} ],
	"outputs": [],
	"properties": {
		"1IPOw2sTV3QLfjpxtjj1HHFeljZdemfM": {
			"height": 60,
			"title": "repeat",
			"width": 131,
			"x": 2978,
			"y": 223
		},
		"2dW9whoq7BZf4LAuUeiajjmcPPCSMU1R": {
			"height": 60,
			"title": "repeat",
			"width": 131,
			"x": 1106,
			"y": 287
		},
		"3cC1wxlnsMmDw3lQvBahROPKNFm2boLh": {
			"height": 60,
			"title": "sequence (TODO go back to safe position)",
			"width": 352,
			"x": 1267,
			"y": 292
		},
		"4Ba3eeF7P7I2EDlsXIVlZJ0FF1kl7Xh6": {
			"height": 60,
			"title": "sequence",
			"width": 143,
			"x": 3071,
			"y": 69
		},
		"4moShg1ZslgLS4qrNivX7t4i8FNgHV6p": {
			"height": 152,
			"title": "nota_exam.groupMove",
			"width": 273,
			"x": 1683,
			"y": 508
		},
		"4wtTQMQZgGY5umnwCEkryr1hDfZUppt7": {
			"height": 152,
			"title": "nota_exam.groupMove",
			"width": 500,
			"x": 3204,
			"y": 320
		},
		"5k3mTKOoMiZ8Vx3N1LHHHNv8tuo88sd5": {
			"height": 70,
			"title": "parallel",
			"width": 202,
			"x": 2575,
			"y": 55
		},
		"CUVlYbqcy7WlJLsh6pvupLytV5W3hPY7": {
			"height": 60,
			"title": "repeat",
			"width": 131,
			"x": 2743,
			"y": -223
		},
		"EmEgk03PWqsjaXe0KiXzLl5UjL90dwFT": {
			"height": 94,
			"title": "store",
			"width": 425,
			"x": 3267,
			"y": 58
		},
		"EqKJuOk65RKTnIanMNNWDZxGuGVw0mui": {
			"height": 90,
			"title": "luaCondition",
			"width": 303,
			"x": 693,
			"y": 1
		},
		"F7luu7dFfLTRaa9CjwPNtzWg17HV2QOX": {
			"height": 92,
			"title": "nota_exam.groupAttack",
			"width": 240,
			"x": 3234,
			"y": -111
		},
		"PKlnnSZ3x1lQ06UZfoiQl9ZDXz9d193U": {
			"height": 94,
			"title": "store",
			"width": 507,
			"x": 902,
			"y": -262
		},
		"Uc9wdMoupIVfJCkrUaHKdKrUlpUD2z3b": {
			"height": 60,
			"title": "repeat",
			"width": 131,
			"x": 1538,
			"y": -196
		},
		"WQmqgxZhuotXceZqDMC1tk5nPSRgqKSt": {
			"height": 94,
			"title": "store",
			"width": 559,
			"x": 2234,
			"y": -380
		},
		"X9PHyJlrAwljmU5Vx83DQO1ImLjvyAyt": {
			"height": 70,
			"title": "parallel",
			"width": 202,
			"x": 1202,
			"y": -31
		},
		"ZQpmTqX8lE4TuhjXvEuIrJWkXzU2FOsl": {
			"height": 92,
			"title": "store",
			"width": 443,
			"x": 1950,
			"y": -504
		},
		"bUyZD2BMGUbWkh7WBdjFXybhPIxCt8uT": {
			"height": 60,
			"title": "repeat",
			"width": 131,
			"x": 532,
			"y": -183
		},
		"c0l8xQpGkCRTKWzfDpdW8t8r9p5apcc7": {
			"height": 70,
			"title": "parallel",
			"width": 202,
			"x": 277,
			"y": 17
		},
		"dWXiw1NTma7R6re4tsHl0TeOS5uPAehm": {
			"height": 94,
			"title": "store",
			"width": 458,
			"x": 1675,
			"y": 319
		},
		"ezpNOXivcPgMCVef5xMW5xWCOJB8gHzP": {
			"height": 60,
			"title": "repeat",
			"width": 131,
			"x": 2874,
			"y": -9
		},
		"gtZBYB81aXqbGMF1pTiUNS8YRNqScwQ2": {
			"height": 90,
			"title": "luaCondition",
			"width": 208,
			"x": 3272,
			"y": 167
		},
		"hP6HntUrvm8DH9f1MVN7i7MyMfqAm3fn": {
			"height": 94,
			"title": "luaCondition",
			"width": 554,
			"x": 1717,
			"y": -102
		},
		"jaa5kNTctx0byiiyEm3EUsVo7NY3PoPb": {
			"height": 90,
			"title": "luaCondition",
			"width": 208,
			"x": 1951,
			"y": -400
		},
		"k9NUOBsNZFA2ljyoxoGzbuETs5mb4Uzz": {
			"height": 60,
			"title": "repeat",
			"width": 131,
			"x": 511,
			"y": 16
		},
		"lWKThvrQhF84gkN5z5UVjCaYslXH5J0S": {
			"height": 94,
			"title": "store",
			"width": 479,
			"x": 900,
			"y": -360
		},
		"ly7np7GlpkWeFFIhhfKs2Ws0coXW8WlV": {
			"height": 60,
			"title": "sequence",
			"width": 143,
			"x": 1735,
			"y": -303
		},
		"m9h1aWecgpYSPQh0HmHUuSv1nAA0hYni": {
			"height": 60,
			"title": "repeat",
			"width": 131,
			"x": 1541,
			"y": -88
		},
		"n19PkFBT86FJla09rSy6OVtVAV1K5zZt": {
			"height": 60,
			"title": "repeat",
			"width": 131,
			"x": 2717,
			"y": -94
		},
		"nz3oI6g4u3fx4vKYgAiChb9BuoRVFgBT": {
			"height": 70,
			"title": "parallel",
			"width": 202,
			"x": 2437,
			"y": -116
		},
		"odjrZnb2ueJj7m7xfBeel6MqeREgCWr4": {
			"height": 236,
			"title": "reference",
			"width": 280,
			"x": 899,
			"y": -597
		},
		"pW50H1YHdAxPPFObHzmifJeCXyXrmFG4": {
			"height": 94,
			"title": "store",
			"width": 494,
			"x": 3579,
			"y": 159
		},
		"qPS4yep0SH5hwcHYpaQZaOJLUk7wVsdK": {
			"height": 94,
			"title": "store",
			"width": 537,
			"x": 1953,
			"y": -596
		},
		"rogriL9wjf6wSAJhQJhtlZ12UsooJBTc": {
			"height": 152,
			"title": "nota_exam.groupMove",
			"width": 500,
			"x": 3242,
			"y": -292
		},
		"tAC099iswfnt3cZwYVpCsLiYI1vigE0F": {
			"height": 92,
			"title": "store",
			"width": 255,
			"x": 2417,
			"y": -1373
		},
		"vPQXd98nWssCFt7TSWzcic1SdB4ue7b8": {
			"height": 60,
			"title": "sequence",
			"width": 143,
			"x": 690,
			"y": -304
		},
		"xWAdWmijdb9hsDitSZGcnsnykuYMwvdR": {
			"height": 72,
			"title": "echo",
			"width": 236,
			"x": 1677,
			"y": 419
		}
	},
	"roles": [ {
		"categories": [],
		"name": "Role 0"
	} ],
	"root": {
		"children": [ {
			"children": [ {
				"children": [ {
					"children": [],
					"id": "odjrZnb2ueJj7m7xfBeel6MqeREgCWr4",
					"nodeType": "reference",
					"parameters": [ {
						"name": "behaviourName",
						"value": "nota_exam.haveEnoughUnits"
					} ],
					"referenceInputs": [ {
						"name": "lineInfo",
						"value": "lineInfo"
					}, {
						"name": "unitName",
						"value": "\"armmart\""
					}, {
						"name": "desiredNumberOfUnits",
						"value": "2"
					}, {
						"name": "priority",
						"value": "5"
					} ],
					"referenceOutputs": [ {
						"name": "everythingOk",
						"value": "everythingOk"
					} ]
				}, {
					"children": [],
					"id": "lWKThvrQhF84gkN5z5UVjCaYslXH5J0S",
					"nodeType": "luaCommand",
					"parameters": [ {
						"name": "var",
						"value": "x"
					}, {
						"name": "value",
						"value": "nota_exam.ensureDisabledFireState(lineInfo.units[\"armmart\"])"
					}, {
						"name": "scriptName",
						"value": "store"
					} ],
					"scriptName": "store"
				}, {
					"children": [],
					"id": "PKlnnSZ3x1lQ06UZfoiQl9ZDXz9d193U",
					"nodeType": "luaCommand",
					"parameters": [ {
						"name": "var",
						"value": "isArtileryInDanger"
					}, {
						"name": "value",
						"value": "nota_exam.isGroupInDanger(lineInfo.units[\"armmart\"], 800, 3, 0.5)"
					}, {
						"name": "scriptName",
						"value": "store"
					} ],
					"scriptName": "store"
				} ],
				"id": "vPQXd98nWssCFt7TSWzcic1SdB4ue7b8",
				"nodeType": "sequence",
				"parameters": []
			} ],
			"id": "bUyZD2BMGUbWkh7WBdjFXybhPIxCt8uT",
			"nodeType": "repeat",
			"parameters": []
		}, {
			"children": [ {
				"children": [ {
					"children": [ {
						"children": [ {
							"children": [ {
								"children": [],
								"id": "qPS4yep0SH5hwcHYpaQZaOJLUk7wVsdK",
								"nodeType": "luaCommand",
								"parameters": [ {
									"name": "var",
									"value": "mostDangerousUnit"
								}, {
									"name": "value",
									"value": "nota_exam.getTargetForArtilery(lineInfo.lineInfo.firstEnemyStrongpoint)"
								}, {
									"name": "scriptName",
									"value": "store"
								} ],
								"scriptName": "store"
							}, {
								"children": [],
								"id": "ZQpmTqX8lE4TuhjXvEuIrJWkXzU2FOsl",
								"nodeType": "luaCommand",
								"parameters": [ {
									"name": "var",
									"value": "battlePos"
								}, {
									"name": "value",
									"value": "examLineInfo.points[lineInfo.lineInfo.battleIndex].position"
								}, {
									"name": "scriptName",
									"value": "store"
								} ],
								"scriptName": "store"
							}, {
								"children": [ {
									"children": [],
									"id": "WQmqgxZhuotXceZqDMC1tk5nPSRgqKSt",
									"nodeType": "luaCommand",
									"parameters": [ {
										"name": "var",
										"value": "mostDangerousUnit"
									}, {
										"name": "value",
										"value": "nota_exam.getEnemyWithHighestDPSInSphere(battlePos, 1300)"
									}, {
										"name": "scriptName",
										"value": "store"
									} ],
									"scriptName": "store"
								} ],
								"id": "jaa5kNTctx0byiiyEm3EUsVo7NY3PoPb",
								"nodeType": "luaCondition",
								"parameters": [ {
									"name": "expression",
									"value": "mostDangerousUnit == nil"
								}, {
									"name": "repeat",
									"value": "true"
								} ]
							} ],
							"id": "ly7np7GlpkWeFFIhhfKs2Ws0coXW8WlV",
							"nodeType": "sequence",
							"parameters": []
						} ],
						"id": "Uc9wdMoupIVfJCkrUaHKdKrUlpUD2z3b",
						"nodeType": "repeat",
						"parameters": []
					}, {
						"children": [ {
							"children": [ {
								"children": [ {
									"children": [ {
										"children": [],
										"id": "rogriL9wjf6wSAJhQJhtlZ12UsooJBTc",
										"nodeType": "luaCommand",
										"parameters": [ {
											"name": "unitsGroup",
											"value": "lineInfo.units[\"armmart\"]"
										}, {
											"name": "targetPoint",
											"value": "examLineInfo.points[lineInfo.lineInfo.battleIndex - 1].position"
										}, {
											"name": "spread",
											"value": "500"
										}, {
											"name": "moveViaAttack",
											"value": "false"
										}, {
											"name": "targetPointThreshold",
											"value": "false"
										}, {
											"name": "scriptName",
											"value": "nota_exam.groupMove"
										} ],
										"scriptName": "nota_exam.groupMove"
									} ],
									"id": "CUVlYbqcy7WlJLsh6pvupLytV5W3hPY7",
									"nodeType": "repeat",
									"parameters": []
								}, {
									"children": [ {
										"children": [],
										"id": "F7luu7dFfLTRaa9CjwPNtzWg17HV2QOX",
										"nodeType": "luaCommand",
										"parameters": [ {
											"name": "group",
											"value": "lineInfo.units[\"armmart\"]"
										}, {
											"name": "target",
											"value": "mostDangerousUnit"
										}, {
											"name": "scriptName",
											"value": "nota_exam.groupAttack"
										} ],
										"scriptName": "nota_exam.groupAttack"
									} ],
									"id": "n19PkFBT86FJla09rSy6OVtVAV1K5zZt",
									"nodeType": "repeat",
									"parameters": []
								} ],
								"id": "nz3oI6g4u3fx4vKYgAiChb9BuoRVFgBT",
								"nodeType": "parallel",
								"parameters": [ {
									"name": "mode",
									"value": "all-success"
								} ]
							}, {
								"children": [ {
									"children": [ {
										"children": [ {
											"children": [],
											"id": "EmEgk03PWqsjaXe0KiXzLl5UjL90dwFT",
											"nodeType": "luaCommand",
											"parameters": [ {
												"name": "var",
												"value": "mostDangerousUnit"
											}, {
												"name": "value",
												"value": "nota_exam.getTargetForArtilery(examLineInfo.points)"
											}, {
												"name": "scriptName",
												"value": "store"
											} ],
											"scriptName": "store"
										}, {
											"children": [ {
												"children": [],
												"id": "pW50H1YHdAxPPFObHzmifJeCXyXrmFG4",
												"nodeType": "luaCommand",
												"parameters": [ {
													"name": "var",
													"value": "mostDangerousUnit"
												}, {
													"name": "value",
													"value": "nota_exam.getEnemyWithHighestDPSInSphere(battlePos, 1300)"
												}, {
													"name": "scriptName",
													"value": "store"
												} ],
												"scriptName": "store"
											} ],
											"id": "gtZBYB81aXqbGMF1pTiUNS8YRNqScwQ2",
											"nodeType": "luaCondition",
											"parameters": [ {
												"name": "expression",
												"value": "mostDangerousUnit == nil"
											}, {
												"name": "repeat",
												"value": "true"
											} ]
										} ],
										"id": "4Ba3eeF7P7I2EDlsXIVlZJ0FF1kl7Xh6",
										"nodeType": "sequence",
										"parameters": []
									} ],
									"id": "ezpNOXivcPgMCVef5xMW5xWCOJB8gHzP",
									"nodeType": "repeat",
									"parameters": []
								}, {
									"children": [ {
										"children": [],
										"id": "4wtTQMQZgGY5umnwCEkryr1hDfZUppt7",
										"nodeType": "luaCommand",
										"parameters": [ {
											"name": "unitsGroup",
											"value": "lineInfo.units[\"armmart\"]"
										}, {
											"name": "targetPoint",
											"value": "examLineInfo.points[lineInfo.lineInfo.battleIndex - 1].position"
										}, {
											"name": "spread",
											"value": "250"
										}, {
											"name": "moveViaAttack",
											"value": "true"
										}, {
											"name": "targetPointThreshold",
											"value": "false"
										}, {
											"name": "scriptName",
											"value": "nota_exam.groupMove"
										} ],
										"scriptName": "nota_exam.groupMove"
									} ],
									"id": "1IPOw2sTV3QLfjpxtjj1HHFeljZdemfM",
									"nodeType": "repeat",
									"parameters": []
								} ],
								"id": "5k3mTKOoMiZ8Vx3N1LHHHNv8tuo88sd5",
								"nodeType": "parallel",
								"parameters": [ {
									"name": "mode",
									"value": "all-success"
								} ]
							} ],
							"id": "hP6HntUrvm8DH9f1MVN7i7MyMfqAm3fn",
							"nodeType": "luaCondition",
							"parameters": [ {
								"name": "expression",
								"value": "mostDangerousUnit ~= nil and nota_exam.isUnitAlive(mostDangerousUnit)"
							}, {
								"name": "repeat",
								"value": "true"
							} ]
						} ],
						"id": "m9h1aWecgpYSPQh0HmHUuSv1nAA0hYni",
						"nodeType": "repeat",
						"parameters": []
					} ],
					"id": "X9PHyJlrAwljmU5Vx83DQO1ImLjvyAyt",
					"nodeType": "parallel",
					"parameters": [ {
						"name": "mode",
						"value": "all-success"
					} ]
				}, {
					"children": [ {
						"children": [ {
							"children": [],
							"id": "dWXiw1NTma7R6re4tsHl0TeOS5uPAehm",
							"nodeType": "luaCommand",
							"parameters": [ {
								"name": "var",
								"value": "safePosition"
							}, {
								"name": "value",
								"value": "nota_exam.getSafePosition(lineInfo.lineInfo, examLineInfo)"
							}, {
								"name": "scriptName",
								"value": "store"
							} ],
							"scriptName": "store"
						}, {
							"children": [],
							"id": "4moShg1ZslgLS4qrNivX7t4i8FNgHV6p",
							"nodeType": "luaCommand",
							"parameters": [ {
								"name": "unitsGroup",
								"value": "lineInfo.units[\"armmart\"]"
							}, {
								"name": "targetPoint",
								"value": "safePosition"
							}, {
								"name": "spread",
								"value": "128"
							}, {
								"name": "moveViaAttack",
								"value": "false"
							}, {
								"name": "targetPointThreshold",
								"value": "false"
							}, {
								"name": "scriptName",
								"value": "nota_exam.groupMove"
							} ],
							"scriptName": "nota_exam.groupMove"
						} ],
						"id": "3cC1wxlnsMmDw3lQvBahROPKNFm2boLh",
						"nodeType": "sequence",
						"parameters": []
					} ],
					"id": "2dW9whoq7BZf4LAuUeiajjmcPPCSMU1R",
					"nodeType": "repeat",
					"parameters": []
				} ],
				"id": "EqKJuOk65RKTnIanMNNWDZxGuGVw0mui",
				"nodeType": "luaCondition",
				"parameters": [ {
					"name": "expression",
					"value": "everythingOk and not(isArtileryInDanger)"
				}, {
					"name": "repeat",
					"value": "true"
				} ]
			} ],
			"id": "k9NUOBsNZFA2ljyoxoGzbuETs5mb4Uzz",
			"nodeType": "repeat",
			"parameters": []
		} ],
		"id": "c0l8xQpGkCRTKWzfDpdW8t8r9p5apcc7",
		"nodeType": "parallel",
		"parameters": [ {
			"name": "mode",
			"value": "all-success"
		} ]
	}
}